genero,data_nascimento,cidade,estado,doenca
Female,07/22/2000,Dayton,OH,caxumba
Female,07/11/2000,North Little Rock,AR,hipertencao
Male,09/11/2000,Cincinnati,OH,caxumba
Male,09/17/2000,Cincinnati,OH,caxumba
Male,08/28/2000,Cleveland,OH,gripe
Female,07/08/2000,Helena,MT,caxumba
Female,07/02/2000,Akron,OH,gripe
Male,09/28/2000,Cincinnati,OH,febre
Female,09/25/2000,Columbus,OH,febre
Male,08/31/2000,Canton,OH,hipertencao
Female,09/15/2000,Warren,OH,febre
Male,07/08/2000,Cleveland,OH,febre
Female,08/22/2000,Fort Smith,AR,febre
Male,08/25/2000,Billings,MT,caxumba
Female,09/14/2000,Akron,OH,caxumba
Male,09/11/2000,Cincinnati,OH,gripe
Male,07/01/2000,Hamilton,OH,caxumba
Female,08/31/2000,Hot Springs National Park,AR,caxumba
Male,09/08/2000,Missoula,MT,hipertencao
Female,08/18/2000,Cleveland,OH,febre
Female,08/03/2000,Columbus,OH,gripe
Male,08/26/2000,Akron,OH,hipertencao
Male,09/19/2000,Canton,OH,hipertencao
Female,07/21/2000,Toledo,OH,gripe
Female,09/01/2000,Columbus,OH,hipertencao
Male,09/23/2000,Cleveland,OH,febre
Female,07/10/2000,Cincinnati,OH,gripe
Male,07/20/2000,Dayton,OH,hipertencao
Male,09/21/2000,Dayton,OH,gripe
Male,09/27/2000,Fort Smith,AR,gripe
Female,08/13/2000,Toledo,OH,febre
Female,09/08/2000,Cleveland,OH,gripe
Male,08/24/2000,Columbus,OH,hipertencao
Male,09/29/2000,Helena,MT,hipertencao
Male,08/05/2000,Cleveland,OH,hipertencao
Female,08/14/2000,Canton,OH,febre
Male,08/25/2000,Springfield,OH,hipertencao
Male,08/13/2000,Cleveland,OH,hipertencao
Male,07/02/2000,Dayton,OH,gripe
Male,07/21/2000,Billings,MT,caxumba
Male,07/30/2000,Cincinnati,OH,febre
Male,09/25/2000,Cleveland,OH,febre
Male,08/02/2000,Fort Smith,AR,hipertencao
Female,09/21/2000,Canton,OH,febre
Male,09/15/2000,Dayton,OH,febre
Male,08/22/2000,Hamilton,OH,febre
Male,07/28/2000,Billings,MT,febre
Male,09/23/2000,Columbus,OH,caxumba
Female,08/23/2000,Cincinnati,OH,hipertencao
Female,09/05/2000,Cincinnati,OH,caxumba
Male,08/07/2000,Dayton,OH,gripe
Female,09/13/2000,Canton,OH,hipertencao
Male,08/08/2000,Cleveland,OH,febre
Male,09/15/2000,Canton,OH,hipertencao
Female,08/18/2000,Cleveland,OH,hipertencao
Male,07/31/2000,Lima,OH,gripe
Male,07/15/2000,Akron,OH,caxumba
Female,08/08/2000,Akron,OH,caxumba
Male,08/12/2000,Cincinnati,OH,febre
Male,07/29/2000,North Little Rock,AR,hipertencao
Male,09/10/2000,Cincinnati,OH,gripe
Male,09/01/2000,Cincinnati,OH,hipertencao
Male,08/27/2000,Hot Springs National Park,AR,gripe
Female,07/06/2000,Cincinnati,OH,febre
Female,08/30/2000,Columbus,OH,febre
Female,08/15/2000,Fort Smith,AR,febre
Female,09/16/2000,Cincinnati,OH,febre
Female,08/10/2000,Youngstown,OH,febre
Female,07/14/2000,Helena,MT,febre
Female,08/05/2000,Dayton,OH,hipertencao
Female,07/19/2000,Cincinnati,OH,gripe
Female,08/14/2000,Toledo,OH,caxumba
Female,09/26/2000,Cleveland,OH,caxumba
Male,09/04/2000,Akron,OH,febre
Male,07/20/2000,Columbus,OH,hipertencao
Male,08/12/2000,North Little Rock,AR,febre
Female,08/05/2000,Columbus,OH,febre
Male,09/23/2000,Helena,MT,hipertencao
Female,07/10/2000,Cincinnati,OH,gripe
Male,08/11/2000,Columbus,OH,caxumba
Female,08/17/2000,Cincinnati,OH,febre
Male,07/19/2000,Columbus,OH,hipertencao
Male,09/27/2000,Akron,OH,febre
Male,08/07/2000,Canton,OH,gripe
Male,08/16/2000,Cincinnati,OH,hipertencao
Female,08/08/2000,Columbus,OH,caxumba
Female,08/12/2000,Cincinnati,OH,hipertencao
Male,09/19/2000,Canton,OH,hipertencao
Male,09/21/2000,Youngstown,OH,febre
Male,08/21/2000,Little Rock,AR,gripe
Male,08/05/2000,Canton,OH,hipertencao
Male,07/16/2000,Cincinnati,OH,gripe
Male,08/10/2000,Columbus,OH,hipertencao
Female,08/24/2000,Columbus,OH,caxumba
Female,09/17/2000,Akron,OH,caxumba
Male,07/14/2000,Cleveland,OH,hipertencao
Female,07/03/2000,Little Rock,AR,caxumba
Female,07/24/2000,Dayton,OH,febre
Male,08/13/2000,Dayton,OH,hipertencao
Male,08/21/2000,Cincinnati,OH,hipertencao
Female,08/04/2000,North Little Rock,AR,hipertencao
Female,09/29/2000,North Little Rock,AR,gripe
Male,07/17/2000,North Little Rock,AR,gripe
Male,07/09/2000,Cincinnati,OH,hipertencao
Female,07/30/2000,Dayton,OH,gripe
Male,09/02/2000,Cincinnati,OH,hipertencao
Male,09/05/2000,Billings,MT,gripe
Male,07/07/2000,Columbus,OH,caxumba
Female,09/07/2000,Toledo,OH,febre
Female,09/20/2000,Canton,OH,gripe
Female,07/01/2000,Lima,OH,hipertencao
Male,08/14/2000,Hot Springs National Park,AR,caxumba
Male,09/26/2000,Akron,OH,caxumba
Female,08/18/2000,Helena,MT,gripe
Male,07/08/2000,Cincinnati,OH,gripe
Female,09/13/2000,Cincinnati,OH,caxumba
Male,09/24/2000,Toledo,OH,gripe
Male,07/22/2000,Little Rock,AR,hipertencao
Female,07/14/2000,Akron,OH,caxumba
Female,09/27/2000,North Little Rock,AR,caxumba
Female,07/14/2000,Cincinnati,OH,gripe
Female,07/08/2000,Lima,OH,febre
Female,07/04/2000,Lima,OH,caxumba
Male,07/26/2000,Cincinnati,OH,caxumba
Female,07/07/2000,Cincinnati,OH,gripe
Female,09/20/2000,Dayton,OH,hipertencao
Female,09/16/2000,Dayton,OH,febre
Male,07/24/2000,Dayton,OH,gripe
Male,08/18/2000,Toledo,OH,hipertencao
Male,07/06/2000,Cincinnati,OH,hipertencao
Male,08/25/2000,Youngstown,OH,hipertencao
Male,09/22/2000,Cincinnati,OH,gripe
Female,08/29/2000,Cleveland,OH,caxumba
Female,09/22/2000,Cleveland,OH,febre
Male,07/08/2000,Cleveland,OH,hipertencao
Female,07/26/2000,Fort Smith,AR,hipertencao
Female,09/27/2000,Columbus,OH,gripe
Male,08/17/2000,Columbus,OH,hipertencao
Male,09/04/2000,Billings,MT,hipertencao
Female,09/03/2000,Dayton,OH,caxumba
Female,09/28/2000,Toledo,OH,hipertencao
Male,08/21/2000,Cincinnati,OH,febre
Male,08/02/2000,Toledo,OH,gripe
Male,07/07/2000,Toledo,OH,hipertencao
Male,09/09/2000,Dayton,OH,caxumba
Female,07/21/2000,Cleveland,OH,caxumba
Male,09/20/2000,Toledo,OH,caxumba
Female,09/17/2000,Columbus,OH,gripe
Female,08/07/2000,Cincinnati,OH,caxumba
Male,08/28/2000,Little Rock,AR,hipertencao
Male,07/09/2000,Akron,OH,febre
Female,09/13/2000,Cleveland,OH,hipertencao
Male,09/29/2000,Akron,OH,caxumba
Male,09/04/2000,Fort Smith,AR,caxumba
Female,08/05/2000,Canton,OH,gripe
Male,09/02/2000,Akron,OH,gripe
Male,09/24/2000,Canton,OH,gripe
Female,08/22/2000,Toledo,OH,hipertencao
Female,07/08/2000,Toledo,OH,gripe
Female,08/23/2000,Little Rock,AR,hipertencao
Male,07/13/2000,Hamilton,OH,caxumba
Male,09/18/2000,Columbus,OH,caxumba
Female,08/21/2000,Hamilton,OH,febre
Female,08/07/2000,Cincinnati,OH,hipertencao
Male,09/14/2000,Akron,OH,hipertencao
Female,08/24/2000,Cincinnati,OH,hipertencao
Female,08/13/2000,Canton,OH,gripe
Female,09/22/2000,Warren,OH,febre
Male,09/07/2000,Toledo,OH,caxumba
Male,08/01/2000,Cleveland,OH,gripe
Female,07/14/2000,Cleveland,OH,hipertencao
Male,07/29/2000,Cleveland,OH,hipertencao
Male,07/22/2000,Lima,OH,gripe
Male,08/17/2000,Hot Springs National Park,AR,hipertencao
Male,09/08/2000,Columbus,OH,hipertencao
Male,08/05/2000,Akron,OH,gripe
Male,08/02/2000,Fort Smith,AR,caxumba
Male,08/07/2000,Youngstown,OH,caxumba
Female,07/08/2000,Cincinnati,OH,gripe
Female,08/14/2000,Youngstown,OH,hipertencao
Male,07/24/2000,Columbus,OH,febre
Male,09/05/2000,Cleveland,OH,gripe
Female,08/15/2000,Cincinnati,OH,caxumba
Female,07/24/2000,Canton,OH,febre
Female,08/22/2000,Columbus,OH,hipertencao
Male,09/24/2000,Dayton,OH,caxumba
Male,07/09/2000,Dayton,OH,febre
Female,07/03/2000,Youngstown,OH,hipertencao
Male,07/03/2000,Canton,OH,caxumba
Male,07/13/2000,Youngstown,OH,caxumba
Female,09/19/2000,Cincinnati,OH,febre
Female,08/20/2000,Toledo,OH,gripe
Female,09/07/2000,Columbus,OH,febre
Male,08/07/2000,Little Rock,AR,febre
Female,08/14/2000,Fort Smith,AR,hipertencao
Female,09/03/2000,Cincinnati,OH,caxumba
Female,07/03/2000,Akron,OH,caxumba
Male,08/27/2000,Cincinnati,OH,hipertencao
Female,07/18/2000,Columbus,OH,febre
Female,07/18/2000,Columbus,OH,hipertencao
Female,09/19/2000,Cincinnati,OH,caxumba
Male,08/23/2000,Cincinnati,OH,caxumba
Male,09/18/2000,Hot Springs National Park,AR,hipertencao
Female,07/11/2000,Canton,OH,febre
Male,07/05/2000,Columbus,OH,caxumba
Female,09/13/2000,North Little Rock,AR,febre
Female,09/29/2000,Columbus,OH,febre
Female,07/08/2000,Little Rock,AR,febre
Female,07/21/2000,Cincinnati,OH,febre
Female,09/29/2000,Mansfield,OH,caxumba
Female,08/29/2000,Dayton,OH,hipertencao
Male,09/12/2000,North Little Rock,AR,hipertencao
Female,09/25/2000,Toledo,OH,gripe
Female,07/16/2000,Akron,OH,febre
Female,09/26/2000,Cleveland,OH,hipertencao
Male,08/21/2000,Cincinnati,OH,hipertencao
Male,09/02/2000,Dayton,OH,hipertencao
Male,09/11/2000,Akron,OH,hipertencao
Male,08/01/2000,Columbus,OH,gripe
Male,09/16/2000,Warren,OH,gripe
Male,09/21/2000,Cincinnati,OH,caxumba
Male,08/07/2000,Cincinnati,OH,hipertencao
Male,07/02/2000,North Little Rock,AR,hipertencao
Male,07/03/2000,Dayton,OH,gripe
Female,07/14/2000,Dayton,OH,hipertencao
Female,09/19/2000,Dayton,OH,febre
Female,08/31/2000,Toledo,OH,hipertencao
Male,07/25/2000,Cincinnati,OH,hipertencao
Male,08/12/2000,Akron,OH,gripe
Male,09/14/2000,Little Rock,AR,caxumba
Male,07/02/2000,Akron,OH,febre
Male,07/21/2000,Billings,MT,caxumba
Female,08/08/2000,Canton,OH,gripe
Female,07/23/2000,Little Rock,AR,febre
Male,08/31/2000,Cincinnati,OH,febre
Male,08/09/2000,Hamilton,OH,febre
Female,07/05/2000,Little Rock,AR,gripe
Female,08/26/2000,Billings,MT,gripe
Male,07/22/2000,Cincinnati,OH,febre
Female,09/11/2000,Cleveland,OH,hipertencao
Female,08/17/2000,Columbus,OH,gripe
Female,07/30/2000,Dayton,OH,caxumba
Male,08/08/2000,Dayton,OH,hipertencao
Male,07/15/2000,Cincinnati,OH,caxumba
Female,08/02/2000,Springfield,OH,caxumba
Male,08/25/2000,Toledo,OH,hipertencao
Female,07/29/2000,Youngstown,OH,caxumba
Female,08/29/2000,Billings,MT,caxumba
Female,07/14/2000,Canton,OH,hipertencao
Female,08/07/2000,Canton,OH,hipertencao
Female,07/31/2000,Dayton,OH,caxumba
Female,09/06/2000,Cleveland,OH,caxumba
Female,09/02/2000,Cincinnati,OH,hipertencao
Male,08/29/2000,Little Rock,AR,caxumba
Female,09/18/2000,Little Rock,AR,caxumba
Female,08/28/2000,North Little Rock,AR,caxumba
Male,07/18/2000,Cincinnati,OH,caxumba
Female,07/15/2000,Little Rock,AR,caxumba
Female,08/16/2000,Youngstown,OH,gripe
Female,09/01/2000,Columbus,OH,caxumba
Female,09/28/2000,Cleveland,OH,caxumba
Female,08/20/2000,Cleveland,OH,hipertencao
Male,08/31/2000,Dayton,OH,caxumba
Female,07/10/2000,Cincinnati,OH,hipertencao
Female,07/19/2000,Columbus,OH,hipertencao
Female,08/25/2000,Youngstown,OH,febre
Female,07/31/2000,Canton,OH,caxumba
Female,09/09/2000,Billings,MT,febre
Female,09/07/2000,Cincinnati,OH,caxumba
Female,09/23/2000,Cincinnati,OH,gripe
Male,07/26/2000,Cincinnati,OH,caxumba
Male,08/08/2000,Cleveland,OH,caxumba
Male,07/09/2000,Dayton,OH,hipertencao
Female,09/20/2000,Cleveland,OH,caxumba
Male,07/26/2000,Hot Springs National Park,AR,gripe
Male,07/13/2000,Akron,OH,hipertencao
Male,09/03/2000,Cincinnati,OH,febre
Female,07/15/2000,Mansfield,OH,gripe
Male,09/10/2000,Dayton,OH,febre
Female,09/09/2000,Cleveland,OH,hipertencao
Female,08/06/2000,Columbus,OH,hipertencao
Male,08/11/2000,Toledo,OH,hipertencao
Male,08/26/2000,Akron,OH,gripe
Female,07/27/2000,Columbus,OH,caxumba
Male,08/16/2000,Billings,MT,gripe
Male,07/29/2000,Toledo,OH,febre
Male,08/02/2000,Cleveland,OH,febre
Male,09/09/2000,Billings,MT,hipertencao
Male,08/18/2000,Toledo,OH,gripe
Female,09/12/2000,North Little Rock,AR,hipertencao
Male,07/12/2000,Canton,OH,caxumba
Female,08/06/2000,North Little Rock,AR,gripe
Male,08/28/2000,Warren,OH,caxumba
Female,09/12/2000,Billings,MT,caxumba
Female,08/06/2000,Cleveland,OH,febre
Male,09/08/2000,Columbus,OH,gripe
Female,08/17/2000,Mansfield,OH,hipertencao
Female,07/05/2000,Cincinnati,OH,febre
Male,09/11/2000,Little Rock,AR,gripe
Male,07/23/2000,Akron,OH,caxumba
Male,07/15/2000,Dayton,OH,febre
Female,08/28/2000,Toledo,OH,gripe
Female,09/25/2000,Cincinnati,OH,febre
Female,08/23/2000,Columbus,OH,caxumba
Male,07/16/2000,Cleveland,OH,febre
Male,07/06/2000,Cincinnati,OH,gripe
Female,07/15/2000,Billings,MT,gripe
Male,09/04/2000,Cincinnati,OH,febre
Female,07/27/2000,Dayton,OH,hipertencao
Female,09/02/2000,Toledo,OH,febre
Male,07/09/2000,Fort Smith,AR,hipertencao
Female,09/14/2000,Columbus,OH,caxumba
Female,08/19/2000,Little Rock,AR,febre
Female,07/07/2000,Dayton,OH,hipertencao
Male,09/06/2000,Cleveland,OH,febre
Female,08/25/2000,Lima,OH,hipertencao
Male,09/04/2000,Cincinnati,OH,gripe
Female,09/05/2000,Toledo,OH,caxumba
Female,09/13/2000,Dayton,OH,febre
Male,08/02/2000,Akron,OH,caxumba
Female,08/17/2000,Dayton,OH,caxumba
Female,07/23/2000,Canton,OH,caxumba
Female,07/28/2000,Mansfield,OH,febre
Female,07/29/2000,Akron,OH,hipertencao
Female,08/07/2000,Cincinnati,OH,gripe
Male,08/06/2000,Fort Smith,AR,hipertencao
Female,08/18/2000,Dayton,OH,caxumba
Female,08/04/2000,Little Rock,AR,caxumba
Female,08/24/2000,Cincinnati,OH,caxumba
Female,08/16/2000,Dayton,OH,caxumba
Female,09/09/2000,Cleveland,OH,hipertencao
Male,07/31/2000,Dayton,OH,gripe
Male,07/18/2000,Akron,OH,hipertencao
Male,08/27/2000,Cleveland,OH,febre
Female,09/01/2000,Dayton,OH,hipertencao
Female,07/14/2000,Columbus,OH,febre
Female,08/30/2000,Cleveland,OH,gripe
Male,08/08/2000,Cincinnati,OH,hipertencao
Male,08/05/2000,Billings,MT,caxumba
Male,07/05/2000,Canton,OH,gripe
Male,09/26/2000,Cincinnati,OH,gripe
Male,09/15/2000,Billings,MT,caxumba
Male,07/20/2000,Cincinnati,OH,caxumba
Male,08/19/2000,Dayton,OH,hipertencao
Male,07/30/2000,Dayton,OH,febre
Male,07/06/2000,Akron,OH,hipertencao
Male,07/15/2000,Cleveland,OH,hipertencao
Male,07/25/2000,Columbus,OH,caxumba
Male,09/21/2000,Columbus,OH,caxumba
Female,07/19/2000,Dayton,OH,hipertencao
Male,07/18/2000,Cleveland,OH,caxumba
Male,07/26/2000,Cincinnati,OH,caxumba
Female,07/08/2000,Cleveland,OH,febre
Female,07/30/2000,Mansfield,OH,hipertencao
Female,07/27/2000,Dayton,OH,gripe
Male,08/25/2000,Dayton,OH,febre
Female,08/12/2000,Akron,OH,gripe
Female,09/04/2000,Canton,OH,hipertencao
Female,09/19/2000,Cincinnati,OH,febre
Female,07/14/2000,Dayton,OH,gripe
Female,09/25/2000,Little Rock,AR,febre
Male,07/06/2000,Canton,OH,caxumba
Male,08/02/2000,Cincinnati,OH,febre
Male,08/26/2000,Hot Springs National Park,AR,febre
Female,07/06/2000,Springfield,OH,hipertencao
Male,07/10/2000,Helena,MT,febre
Male,08/09/2000,Cleveland,OH,caxumba
Female,07/20/2000,Bozeman,MT,gripe
Female,08/27/2000,Toledo,OH,gripe
Female,09/10/2000,North Little Rock,AR,caxumba
Male,08/22/2000,Cleveland,OH,gripe
Female,07/13/2000,Cincinnati,OH,hipertencao
Male,09/22/2000,Mansfield,OH,hipertencao
Male,07/28/2000,Cleveland,OH,caxumba
Male,07/11/2000,Dayton,OH,caxumba
Female,07/23/2000,Cleveland,OH,gripe
Female,09/20/2000,Canton,OH,gripe
Male,08/01/2000,Dayton,OH,hipertencao
Male,07/22/2000,Cleveland,OH,caxumba
Male,07/05/2000,Fort Smith,AR,hipertencao
Female,07/14/2000,Dayton,OH,caxumba
Female,08/16/2000,Billings,MT,febre
Female,09/20/2000,Cleveland,OH,hipertencao
Male,08/08/2000,Cleveland,OH,gripe
Female,07/13/2000,Dayton,OH,hipertencao
Male,09/04/2000,Cleveland,OH,gripe
Female,07/10/2000,Warren,OH,gripe
Male,07/02/2000,Columbus,OH,hipertencao
Female,09/12/2000,Columbus,OH,gripe
Male,07/23/2000,Cincinnati,OH,hipertencao
Female,09/11/2000,Cincinnati,OH,hipertencao
Female,09/07/2000,Dayton,OH,gripe
Male,08/29/2000,Cincinnati,OH,febre
Male,07/29/2000,North Little Rock,AR,hipertencao
Female,08/29/2000,Billings,MT,gripe
Female,07/24/2000,Missoula,MT,febre
Male,07/20/2000,Cleveland,OH,caxumba
Female,07/01/2000,Lima,OH,caxumba
Female,09/16/2000,Akron,OH,gripe
Male,08/02/2000,Helena,MT,febre
Male,09/11/2000,Canton,OH,hipertencao
Female,08/13/2000,Little Rock,AR,febre
Female,07/18/2000,Akron,OH,hipertencao
Male,07/16/2000,Dayton,OH,hipertencao
Male,09/01/2000,Cleveland,OH,hipertencao
Female,07/10/2000,Columbus,OH,hipertencao
Female,08/22/2000,Canton,OH,caxumba
Male,07/22/2000,Akron,OH,febre
Female,09/07/2000,Youngstown,OH,gripe
Female,08/06/2000,Toledo,OH,febre
Male,07/11/2000,Toledo,OH,febre
Female,07/05/2000,Columbus,OH,caxumba
Male,08/16/2000,Warren,OH,caxumba
Female,07/11/2000,Cincinnati,OH,febre
Female,09/26/2000,Cincinnati,OH,gripe
Female,09/05/2000,Cleveland,OH,caxumba
Male,08/20/2000,Cincinnati,OH,hipertencao
Male,09/06/2000,Canton,OH,febre
Male,07/30/2000,North Little Rock,AR,gripe
Female,07/29/2000,Bozeman,MT,febre
Female,08/13/2000,Akron,OH,hipertencao
Male,08/04/2000,Hamilton,OH,caxumba
Male,09/10/2000,Hamilton,OH,febre
Male,07/28/2000,Youngstown,OH,caxumba
Male,09/20/2000,Cincinnati,OH,hipertencao
Female,09/14/2000,Little Rock,AR,febre
Female,07/29/2000,Toledo,OH,hipertencao
Female,08/06/2000,Columbus,OH,caxumba
Female,09/18/2000,Cincinnati,OH,hipertencao
Male,08/10/2000,Cincinnati,OH,hipertencao
Male,07/30/2000,Toledo,OH,hipertencao
Female,09/22/2000,Dayton,OH,caxumba
Female,07/16/2000,Toledo,OH,febre
Female,07/27/2000,Columbus,OH,hipertencao
Male,08/30/2000,Cincinnati,OH,febre
Female,07/31/2000,Cincinnati,OH,caxumba
Female,07/02/2000,Columbus,OH,febre
Male,08/25/2000,Cleveland,OH,hipertencao
Female,08/14/2000,Canton,OH,hipertencao
Female,08/13/2000,Dayton,OH,hipertencao
Male,09/07/2000,Little Rock,AR,gripe
Female,08/31/2000,Dayton,OH,caxumba
Male,09/03/2000,Cincinnati,OH,hipertencao
Male,07/30/2000,Akron,OH,caxumba
Female,07/24/2000,Columbus,OH,hipertencao
Male,07/19/2000,Mansfield,OH,caxumba
Male,09/25/2000,Canton,OH,hipertencao
Female,08/20/2000,Youngstown,OH,gripe
Male,08/08/2000,Cleveland,OH,febre
Male,09/26/2000,Dayton,OH,caxumba
Male,07/01/2000,Dayton,OH,hipertencao
Male,07/20/2000,Cincinnati,OH,hipertencao
Female,07/26/2000,Little Rock,AR,caxumba
Female,08/14/2000,Cleveland,OH,caxumba
Male,07/02/2000,Dayton,OH,febre
Male,07/01/2000,Cincinnati,OH,caxumba
Female,07/29/2000,Cincinnati,OH,caxumba
Male,08/30/2000,Columbus,OH,caxumba
Male,07/07/2000,Cleveland,OH,febre
Female,07/18/2000,Columbus,OH,hipertencao
Male,08/07/2000,Cincinnati,OH,hipertencao
Male,09/27/2000,Youngstown,OH,caxumba
Male,08/31/2000,Little Rock,AR,caxumba
Male,08/10/2000,Akron,OH,gripe
Male,08/06/2000,Cincinnati,OH,caxumba
Female,08/25/2000,Cincinnati,OH,febre
Male,07/09/2000,Dayton,OH,gripe
Male,07/16/2000,Toledo,OH,caxumba
Male,09/02/2000,Springfield,OH,caxumba
Male,08/01/2000,Cleveland,OH,caxumba
Male,08/22/2000,Mansfield,OH,caxumba
Female,08/23/2000,Cincinnati,OH,febre
Female,07/03/2000,Cincinnati,OH,caxumba
Female,07/19/2000,Springfield,OH,hipertencao
Male,09/19/2000,Billings,MT,hipertencao
Female,09/17/2000,Cleveland,OH,febre
Male,08/26/2000,Mansfield,OH,febre
Female,07/11/2000,Columbus,OH,gripe
Male,08/10/2000,Cincinnati,OH,gripe
Female,09/06/2000,Columbus,OH,caxumba
Female,07/18/2000,Cincinnati,OH,gripe
Male,07/22/2000,Lima,OH,febre
Male,07/26/2000,Cleveland,OH,gripe
Male,07/16/2000,Cleveland,OH,gripe
Male,08/17/2000,Canton,OH,caxumba
Female,07/17/2000,Cleveland,OH,gripe
Male,09/24/2000,Little Rock,AR,hipertencao
Female,07/19/2000,Cincinnati,OH,caxumba
Male,07/22/2000,Akron,OH,gripe
Female,08/20/2000,Little Rock,AR,caxumba
Male,08/20/2000,Youngstown,OH,gripe
Female,09/16/2000,Toledo,OH,febre
Female,07/25/2000,Columbus,OH,febre
Male,09/13/2000,Canton,OH,hipertencao
Male,08/19/2000,Dayton,OH,caxumba
Male,08/17/2000,Dayton,OH,hipertencao
Female,07/23/2000,Akron,OH,gripe
Female,08/17/2000,Cincinnati,OH,caxumba
Female,07/31/2000,Cleveland,OH,febre
Male,07/12/2000,Cincinnati,OH,caxumba
Female,07/17/2000,Billings,MT,gripe
Male,08/14/2000,Cincinnati,OH,hipertencao
Female,07/13/2000,Canton,OH,febre
Female,09/07/2000,Little Rock,AR,hipertencao
Female,07/07/2000,Columbus,OH,caxumba
Male,09/27/2000,Columbus,OH,febre
Female,08/27/2000,Akron,OH,hipertencao
Male,08/26/2000,Dayton,OH,hipertencao
Female,09/15/2000,Cleveland,OH,hipertencao
Male,07/27/2000,Cincinnati,OH,gripe
Male,07/08/2000,Columbus,OH,febre
Female,07/01/2000,Columbus,OH,gripe
Male,08/10/2000,Cincinnati,OH,febre
Male,08/04/2000,Mansfield,OH,caxumba
Male,09/08/2000,Cincinnati,OH,gripe
Male,07/06/2000,Youngstown,OH,hipertencao
Female,09/04/2000,Little Rock,AR,hipertencao
Male,08/06/2000,Columbus,OH,caxumba
Male,08/28/2000,Cincinnati,OH,caxumba
Female,08/05/2000,Cincinnati,OH,caxumba
Male,09/18/2000,Toledo,OH,febre
Male,09/16/2000,Akron,OH,caxumba
Male,09/25/2000,Akron,OH,hipertencao
Female,09/11/2000,Canton,OH,hipertencao
Female,07/31/2000,North Little Rock,AR,hipertencao
Male,07/17/2000,Dayton,OH,hipertencao
Male,08/02/2000,Helena,MT,hipertencao
Female,08/08/2000,Columbus,OH,hipertencao
Male,07/24/2000,Toledo,OH,caxumba
Female,08/06/2000,Cincinnati,OH,febre
Female,09/24/2000,Dayton,OH,hipertencao
Male,08/13/2000,Columbus,OH,febre
Male,07/11/2000,Canton,OH,gripe
Male,07/25/2000,Cincinnati,OH,caxumba
Male,07/28/2000,Columbus,OH,hipertencao
Female,09/18/2000,Cleveland,OH,gripe
Male,08/13/2000,Akron,OH,caxumba
Male,08/31/2000,Cincinnati,OH,febre
Female,08/07/2000,Dayton,OH,gripe
Male,07/27/2000,Dayton,OH,gripe
Male,07/06/2000,Cleveland,OH,gripe
Female,08/14/2000,Fort Smith,AR,febre
Male,09/23/2000,Cincinnati,OH,hipertencao
Female,09/07/2000,Cincinnati,OH,caxumba
Female,07/26/2000,Cincinnati,OH,hipertencao
Male,08/24/2000,Cincinnati,OH,febre
Male,08/21/2000,Fort Smith,AR,febre
Female,09/22/2000,Cincinnati,OH,hipertencao
Female,09/02/2000,Columbus,OH,febre
Female,08/04/2000,Toledo,OH,caxumba
Female,09/09/2000,Canton,OH,caxumba
Male,07/31/2000,Warren,OH,hipertencao
Female,07/05/2000,Fort Smith,AR,caxumba
Male,08/06/2000,Dayton,OH,caxumba
Female,07/09/2000,Cincinnati,OH,hipertencao
Female,08/01/2000,Columbus,OH,febre
Female,07/11/2000,Dayton,OH,febre
Female,09/27/2000,Hamilton,OH,gripe
Male,07/04/2000,Little Rock,AR,hipertencao
Female,07/16/2000,Little Rock,AR,caxumba
Female,07/04/2000,Helena,MT,caxumba
Female,09/18/2000,Youngstown,OH,caxumba
Male,09/27/2000,Cincinnati,OH,febre
Male,08/06/2000,Cincinnati,OH,caxumba
Male,08/01/2000,Canton,OH,caxumba
Female,08/21/2000,Cincinnati,OH,hipertencao
Female,07/23/2000,Toledo,OH,febre
Female,09/02/2000,Columbus,OH,gripe
Male,07/14/2000,Cincinnati,OH,hipertencao
Female,09/14/2000,Youngstown,OH,gripe
Male,08/07/2000,Helena,MT,febre
Female,08/13/2000,Cincinnati,OH,gripe
Female,08/19/2000,Youngstown,OH,gripe
Male,07/05/2000,Cleveland,OH,gripe
Male,07/25/2000,Youngstown,OH,caxumba
Female,09/07/2000,Cleveland,OH,gripe
Female,09/15/2000,Akron,OH,gripe
Male,07/15/2000,Cincinnati,OH,gripe
Male,09/04/2000,Hamilton,OH,gripe
Male,09/28/2000,Cleveland,OH,caxumba
Female,09/19/2000,Lima,OH,hipertencao
Male,09/03/2000,Canton,OH,hipertencao
Male,09/04/2000,Akron,OH,caxumba
Male,07/21/2000,Cleveland,OH,hipertencao
Male,09/29/2000,Toledo,OH,caxumba
Female,07/02/2000,Cincinnati,OH,febre
Female,08/20/2000,Canton,OH,febre
Male,09/22/2000,Akron,OH,febre
Male,08/10/2000,Toledo,OH,gripe
Male,09/24/2000,Cincinnati,OH,hipertencao
Female,09/22/2000,Columbus,OH,caxumba
Female,08/26/2000,Akron,OH,caxumba
Female,07/11/2000,Mansfield,OH,caxumba
Female,07/11/2000,Youngstown,OH,febre
Female,09/01/2000,Helena,MT,febre
Male,08/24/2000,Missoula,MT,hipertencao
Male,07/18/2000,Columbus,OH,febre
Female,08/11/2000,Canton,OH,hipertencao
Male,07/19/2000,Dayton,OH,gripe
Male,09/08/2000,Cincinnati,OH,hipertencao
Male,07/13/2000,Hamilton,OH,febre
Male,09/25/2000,Toledo,OH,febre
Female,09/22/2000,Canton,OH,caxumba
Male,08/26/2000,Youngstown,OH,febre
Male,07/09/2000,Hot Springs National Park,AR,febre
Female,07/20/2000,Akron,OH,caxumba
Male,08/30/2000,Dayton,OH,gripe
Male,09/08/2000,Fort Smith,AR,caxumba
Female,09/15/2000,Toledo,OH,caxumba
Female,07/10/2000,Dayton,OH,gripe
Female,09/13/2000,Cincinnati,OH,caxumba
Male,07/18/2000,Toledo,OH,febre
Male,08/31/2000,Columbus,OH,febre
Male,09/19/2000,Canton,OH,gripe
Male,09/06/2000,Youngstown,OH,febre
Male,07/20/2000,Helena,MT,febre
Male,09/05/2000,North Little Rock,AR,hipertencao
Female,08/13/2000,Akron,OH,febre
Male,08/04/2000,Little Rock,AR,febre
Female,08/29/2000,Cleveland,OH,hipertencao
Male,07/11/2000,Akron,OH,gripe
Female,09/25/2000,Cincinnati,OH,gripe
Female,07/30/2000,Cleveland,OH,gripe
Female,07/21/2000,Toledo,OH,febre
Female,08/18/2000,Cleveland,OH,hipertencao
Female,09/05/2000,Columbus,OH,caxumba
Female,08/27/2000,Cincinnati,OH,hipertencao
Male,09/02/2000,Cincinnati,OH,caxumba
Male,08/03/2000,Mansfield,OH,febre
Male,09/28/2000,Dayton,OH,gripe
Female,09/20/2000,Cleveland,OH,caxumba
Female,07/11/2000,Billings,MT,caxumba
Female,08/19/2000,Cleveland,OH,hipertencao
Female,08/17/2000,Canton,OH,gripe
Male,07/02/2000,Columbus,OH,caxumba
Male,08/10/2000,Cincinnati,OH,febre
Male,08/14/2000,Dayton,OH,caxumba
Female,08/26/2000,Billings,MT,gripe
Female,07/14/2000,Dayton,OH,febre
Male,08/16/2000,Fort Smith,AR,caxumba
Female,08/02/2000,Helena,MT,febre
Female,09/15/2000,Billings,MT,gripe
Male,09/04/2000,Columbus,OH,febre
Female,07/21/2000,Cincinnati,OH,caxumba
Female,08/12/2000,Dayton,OH,caxumba
Male,07/15/2000,Akron,OH,gripe
Female,07/09/2000,Warren,OH,hipertencao
Male,09/06/2000,Canton,OH,caxumba
Female,09/12/2000,Cleveland,OH,caxumba
Male,07/27/2000,North Little Rock,AR,caxumba
Female,07/17/2000,Youngstown,OH,caxumba
Male,08/02/2000,Youngstown,OH,caxumba
Female,07/01/2000,Cleveland,OH,gripe
Male,07/20/2000,Youngstown,OH,gripe
Male,08/30/2000,Cincinnati,OH,hipertencao
Male,08/11/2000,Billings,MT,gripe
Male,08/12/2000,Cleveland,OH,febre
Male,07/13/2000,Columbus,OH,caxumba
Female,09/14/2000,Billings,MT,febre
Female,08/23/2000,Cincinnati,OH,caxumba
Male,09/12/2000,Cincinnati,OH,hipertencao
Female,08/31/2000,Dayton,OH,gripe
Male,07/09/2000,Cincinnati,OH,febre
Female,07/26/2000,Akron,OH,febre
Female,08/09/2000,North Little Rock,AR,hipertencao
Female,08/26/2000,Dayton,OH,hipertencao
Male,07/07/2000,Little Rock,AR,hipertencao
Female,08/03/2000,Cincinnati,OH,gripe
Male,07/06/2000,Youngstown,OH,caxumba
Male,07/20/2000,Toledo,OH,caxumba
Female,09/10/2000,Cincinnati,OH,hipertencao
Male,09/01/2000,Cincinnati,OH,febre
Female,09/10/2000,Little Rock,AR,caxumba
Female,08/21/2000,Cleveland,OH,gripe
Male,07/05/2000,Warren,OH,gripe
Female,07/01/2000,Cincinnati,OH,gripe
Male,08/23/2000,Cincinnati,OH,hipertencao
Female,07/05/2000,Little Rock,AR,gripe
Female,08/05/2000,Columbus,OH,gripe
Male,08/24/2000,Cincinnati,OH,gripe
Female,08/12/2000,Columbus,OH,febre
Male,08/17/2000,Canton,OH,hipertencao
Male,09/28/2000,Columbus,OH,gripe
Male,08/11/2000,Fort Smith,AR,hipertencao
Female,08/10/2000,Akron,OH,hipertencao
Male,07/09/2000,Little Rock,AR,febre
Male,08/04/2000,Toledo,OH,hipertencao
Male,09/09/2000,Warren,OH,febre
Female,09/01/2000,Cincinnati,OH,febre
Female,07/10/2000,Fort Smith,AR,gripe
Male,07/05/2000,Columbus,OH,febre
Male,07/19/2000,Little Rock,AR,gripe
Male,08/14/2000,Mansfield,OH,caxumba
Male,09/12/2000,Cincinnati,OH,febre
Male,07/28/2000,Cleveland,OH,gripe
Female,09/27/2000,Little Rock,AR,caxumba
Female,07/12/2000,Cincinnati,OH,gripe
Female,09/16/2000,Toledo,OH,febre
Male,07/06/2000,Cleveland,OH,caxumba
Male,09/29/2000,Cleveland,OH,hipertencao
