,genero,cidade,estado,doenca,data_nascimento
0,Female,*,*,febre,*/*/2000
1,Female,*,*,febre,*/*/2000
2,Female,*,*,caxumba,*/*/2000
3,Female,*,*,hipertencao,*/*/2000
4,Female,*,*,caxumba,*/*/2000
5,Female,*,*,febre,*/*/2000
6,Female,*,*,gripe,*/*/2000
7,Female,*,*,caxumba,*/*/2000
8,Female,*,*,caxumba,*/*/2000
9,Female,*,*,febre,*/*/2000
10,Female,*,*,hipertencao,*/*/2000
11,Female,*,*,febre,*/*/2000
12,Female,*,*,febre,*/*/2000
13,Female,*,*,gripe,*/*/2000
14,Female,*,*,hipertencao,*/*/2000
15,Female,*,*,caxumba,*/*/2000
16,Female,*,*,febre,*/*/2000
17,Female,*,*,febre,*/*/2000
18,Female,*,OH,hipertencao,*/*/2000
19,Female,*,OH,gripe,*/*/2000
20,Female,*,OH,gripe,*/*/2000
21,Female,*,OH,febre,*/*/2000
22,Female,*,OH,hipertencao,*/*/2000
23,Female,*,OH,febre,*/*/2000
24,Female,*,OH,caxumba,*/*/2000
25,Female,*,OH,gripe,*/*/2000
26,Female,*,OH,febre,*/*/2000
27,*,*,*,febre,*/*/2000
28,*,*,*,febre,*/*/2000
29,*,*,*,hipertencao,*/*/2000
30,*,*,*,gripe,*/*/2000
31,*,*,*,gripe,*/*/2000
32,*,*,*,hipertencao,*/*/2000
33,*,*,*,caxumba,*/*/2000
34,*,*,*,febre,*/*/2000
35,*,*,*,caxumba,*/*/2000
36,*,*,*,hipertencao,*/*/2000
37,*,*,*,hipertencao,*/*/2000
38,*,*,*,caxumba,*/*/2000
39,*,*,*,hipertencao,*/*/2000
40,*,*,*,hipertencao,*/*/2000
41,*,*,*,hipertencao,*/*/2000
42,*,*,*,hipertencao,*/*/2000
43,*,*,*,febre,*/*/2000
44,*,*,*,febre,*/*/2000
45,*,*,*,hipertencao,*/*/2000
46,*,*,*,gripe,*/*/2000
47,*,*,*,febre,*/*/2000
48,*,*,*,febre,*/*/2000
49,*,*,*,hipertencao,*/*/2000
50,*,*,*,caxumba,*/*/2000
51,*,*,*,gripe,*/*/2000
52,*,*,*,hipertencao,*/*/2000
53,*,*,*,gripe,*/*/2000
54,*,*,*,febre,*/*/2000
55,*,*,*,gripe,*/*/2000
56,*,*,*,caxumba,*/*/2000
57,*,*,*,febre,*/*/2000
58,*,*,*,gripe,*/*/2000
59,*,*,*,hipertencao,*/*/2000
60,Male,Cincinnati,OH,hipertencao,9/*/2000
61,Male,Cincinnati,OH,gripe,9/*/2000
62,Male,Cincinnati,OH,caxumba,9/*/2000
63,Male,Cincinnati,OH,gripe,9/*/2000
64,Male,Cincinnati,OH,caxumba,9/*/2000
65,Male,Cincinnati,OH,febre,9/*/2000
66,Male,Cleveland,OH,febre,7/*/2000
67,Male,Cleveland,OH,hipertencao,8/*/2000
68,Male,Cleveland,OH,febre,8/*/2000
69,Male,Cincinnati,OH,febre,9/*/2000
70,Male,Cleveland,OH,febre,7/*/2000
71,Male,Cleveland,OH,hipertencao,8/*/2000
72,Male,Cleveland,OH,febre,8/*/2000
